ex3/UMC_1.2v/syn_sim/design_activity.vcd
$date
	Mon Apr 13 10:13:11 2015
$end
$version
	ModelSim Version 6.5f
$end
$timescale
	1ns
$end
$scope module shift_adder_testbench $end
$scope module dut $end
$var wire 1 ! lefthand [7] $end
$var wire 1 " lefthand [6] $end
$var wire 1 # lefthand [5] $end
$var wire 1 $ lefthand [4] $end
$var wire 1 % lefthand [3] $end
$var wire 1 & lefthand [2] $end
$var wire 1 ' lefthand [1] $end
$var wire 1 ( lefthand [0] $end
$var wire 1 ) righthand [7] $end
$var wire 1 * righthand [6] $end
$var wire 1 + righthand [5] $end
$var wire 1 , righthand [4] $end
$var wire 1 - righthand [3] $end
$var wire 1 . righthand [2] $end
$var wire 1 / righthand [1] $end
$var wire 1 0 righthand [0] $end
$var wire 1 1 result [8] $end
$var wire 1 2 result [7] $end
$var wire 1 3 result [6] $end
$var wire 1 4 result [5] $end
$var wire 1 5 result [4] $end
$var wire 1 6 result [3] $end
$var wire 1 7 result [2] $end
$var wire 1 8 result [1] $end
$var wire 1 9 result [0] $end
$var wire 1 : clock $end
$var wire 1 ; reset $end
$var wire 1 < N3 $end
$var wire 1 = N4 $end
$var wire 1 > N5 $end
$var wire 1 ? N6 $end
$var wire 1 @ N7 $end
$var wire 1 A N8 $end
$var wire 1 B N9 $end
$var wire 1 C N10 $end
$var wire 1 D N11 $end
$var wire 1 E N12 $end
$var wire 1 F N13 $end
$var wire 1 G N14 $end
$var wire 1 H N15 $end
$var wire 1 I N16 $end
$var wire 1 J N17 $end
$var wire 1 K N18 $end
$scope module \result_reg[7]  $end
$var wire 1 L q $end
$var wire 1 M d $end
$var wire 1 N ck $end
$var wire 1 M d_ipd $end
$var wire 1 N ck_ipd $end
$var wire 1 N ck_dly $end
$var wire 1 M d_ck_dly $end
$upscope $end
$scope module \result_reg[6]  $end
$var wire 1 O q $end
$var wire 1 P d $end
$var wire 1 Q ck $end
$var wire 1 P d_ipd $end
$var wire 1 Q ck_ipd $end
$var wire 1 Q ck_dly $end
$var wire 1 P d_ck_dly $end
$upscope $end
$scope module \result_reg[5]  $end
$var wire 1 R q $end
$var wire 1 S d $end
$var wire 1 T ck $end
$var wire 1 S d_ipd $end
$var wire 1 T ck_ipd $end
$var wire 1 T ck_dly $end
$var wire 1 S d_ck_dly $end
$upscope $end
$scope module \result_reg[4]  $end
$var wire 1 U q $end
$var wire 1 V d $end
$var wire 1 W ck $end
$var wire 1 V d_ipd $end
$var wire 1 W ck_ipd $end
$var wire 1 W ck_dly $end
$var wire 1 V d_ck_dly $end
$upscope $end
$scope module \result_reg[3]  $end
$var wire 1 X q $end
$var wire 1 Y d $end
$var wire 1 Z ck $end
$var wire 1 Y d_ipd $end
$var wire 1 Z ck_ipd $end
$var wire 1 Z ck_dly $end
$var wire 1 Y d_ck_dly $end
$upscope $end
$scope module \result_reg[2]  $end
$var wire 1 [ q $end
$var wire 1 \ d $end
$var wire 1 ] ck $end
$var wire 1 \ d_ipd $end
$var wire 1 ] ck_ipd $end
$var wire 1 ] ck_dly $end
$var wire 1 \ d_ck_dly $end
$upscope $end
$scope module \result_reg[1]  $end
$var wire 1 ^ q $end
$var wire 1 _ d $end
$var wire 1 ` ck $end
$var wire 1 _ d_ipd $end
$var wire 1 ` ck_ipd $end
$var wire 1 ` ck_dly $end
$var wire 1 _ d_ck_dly $end
$upscope $end
$scope module \result_reg[0]  $end
$var wire 1 a q $end
$var wire 1 b d $end
$var wire 1 c ck $end
$var wire 1 b d_ipd $end
$var wire 1 c ck_ipd $end
$var wire 1 c ck_dly $end
$var wire 1 b d_ck_dly $end
$upscope $end
$scope module U13 $end
$var wire 1 d o $end
$var wire 1 e i1 $end
$var wire 1 f b1 $end
$var wire 1 e i1_ipd $end
$var wire 1 f b1_ipd $end
$upscope $end
$scope module U14 $end
$var wire 1 g o $end
$var wire 1 h i1 $end
$var wire 1 i b1 $end
$var wire 1 h i1_ipd $end
$var wire 1 i b1_ipd $end
$upscope $end
$scope module U15 $end
$var wire 1 j o $end
$var wire 1 k i1 $end
$var wire 1 l b1 $end
$var wire 1 k i1_ipd $end
$var wire 1 l b1_ipd $end
$upscope $end
$scope module U16 $end
$var wire 1 m o $end
$var wire 1 n i1 $end
$var wire 1 o b1 $end
$var wire 1 n i1_ipd $end
$var wire 1 o b1_ipd $end
$upscope $end
$scope module U17 $end
$var wire 1 p o $end
$var wire 1 q i1 $end
$var wire 1 r b1 $end
$var wire 1 q i1_ipd $end
$var wire 1 r b1_ipd $end
$upscope $end
$scope module U18 $end
$var wire 1 s o $end
$var wire 1 t i1 $end
$var wire 1 u b1 $end
$var wire 1 t i1_ipd $end
$var wire 1 u b1_ipd $end
$upscope $end
$scope module U19 $end
$var wire 1 v o $end
$var wire 1 w i1 $end
$var wire 1 x b1 $end
$var wire 1 w i1_ipd $end
$var wire 1 x b1_ipd $end
$upscope $end
$scope module U20 $end
$var wire 1 y o $end
$var wire 1 z i1 $end
$var wire 1 { b1 $end
$var wire 1 z i1_ipd $end
$var wire 1 { b1_ipd $end
$upscope $end
$scope module U21 $end
$var wire 1 | o $end
$upscope $end
$scope module add_31 $end
$var wire 1 } carry [7] $end
$var wire 1 ~ carry [6] $end
$var wire 1 !! carry [5] $end
$var wire 1 "! carry [4] $end
$var wire 1 #! carry [3] $end
$var wire 1 $! carry [2] $end
$var wire 1 %! carry [1] $end
$scope module U1_7 $end
$var wire 1 &! o $end
$var wire 1 '! i1 $end
$var wire 1 (! i2 $end
$var wire 1 )! i3 $end
$var wire 1 '! i1_ipd $end
$var wire 1 (! i2_ipd $end
$var wire 1 )! i3_ipd $end
$upscope $end
$scope module U1 $end
$var wire 1 *! o $end
$var wire 1 +! i1 $end
$var wire 1 ,! i2 $end
$var wire 1 +! i1_ipd $end
$var wire 1 ,! i2_ipd $end
$upscope $end
$scope module U2 $end
$var wire 1 -! o $end
$var wire 1 .! i1 $end
$var wire 1 /! i2 $end
$var wire 1 .! i1_ipd $end
$var wire 1 /! i2_ipd $end
$upscope $end
$scope module U1_1 $end
$var wire 1 0! s $end
$var wire 1 1! co $end
$var wire 1 2! a $end
$var wire 1 3! b $end
$var wire 1 4! ci $end
$var wire 1 2! a_ipd $end
$var wire 1 3! b_ipd $end
$var wire 1 4! ci_ipd $end
$upscope $end
$scope module U1_2 $end
$var wire 1 5! s $end
$var wire 1 6! co $end
$var wire 1 7! a $end
$var wire 1 8! b $end
$var wire 1 9! ci $end
$var wire 1 7! a_ipd $end
$var wire 1 8! b_ipd $end
$var wire 1 9! ci_ipd $end
$upscope $end
$scope module U1_3 $end
$var wire 1 :! s $end
$var wire 1 ;! co $end
$var wire 1 <! a $end
$var wire 1 =! b $end
$var wire 1 >! ci $end
$var wire 1 <! a_ipd $end
$var wire 1 =! b_ipd $end
$var wire 1 >! ci_ipd $end
$upscope $end
$scope module U1_4 $end
$var wire 1 ?! s $end
$var wire 1 @! co $end
$var wire 1 A! a $end
$var wire 1 B! b $end
$var wire 1 C! ci $end
$var wire 1 A! a_ipd $end
$var wire 1 B! b_ipd $end
$var wire 1 C! ci_ipd $end
$upscope $end
$scope module U1_5 $end
$var wire 1 D! s $end
$var wire 1 E! co $end
$var wire 1 F! a $end
$var wire 1 G! b $end
$var wire 1 H! ci $end
$var wire 1 F! a_ipd $end
$var wire 1 G! b_ipd $end
$var wire 1 H! ci_ipd $end
$upscope $end
$scope module U1_6 $end
$var wire 1 I! s $end
$var wire 1 J! co $end
$var wire 1 K! a $end
$var wire 1 L! b $end
$var wire 1 M! ci $end
$var wire 1 K! a_ipd $end
$var wire 1 L! b_ipd $end
$var wire 1 M! ci_ipd $end
$upscope $end
$upscope $end
$upscope $end
$upscope $end
$enddefinitions $end
#0
$dumpvars
x<
x=
x>
x?
x@
xA
xB
xC
0D
0E
0F
0G
0H
0I
0J
0K
x%!
x$!
x#!
x"!
x!!
x~
x}
1:
1;
x(
x'
x&
x%
x$
x#
x"
x!
x0
x/
x.
x-
x,
x+
x*
x)
x9
x8
x7
x6
x5
x4
x3
x2
01
xL
0M
1N
xO
0P
1Q
xR
0S
1T
xU
0V
1W
xX
0Y
1Z
x[
0\
1]
x^
0_
1`
xa
0b
1c
0d
xe
1f
0g
xh
1i
0j
xk
1l
0m
xn
1o
0p
xq
1r
0s
xt
1u
0v
xw
1x
0y
xz
1{
0|
x&!
x'!
x(!
x)!
x*!
x+!
x,!
x-!
x.!
x/!
x0!
x1!
x2!
x3!
x4!
x5!
x6!
x7!
x8!
x9!
x:!
x;!
x<!
x=!
x>!
x?!
x@!
xA!
xB!
xC!
xD!
xE!
xF!
xG!
xH!
xI!
xJ!
xK!
xL!
xM!
$end
#1
0:
0c
0`
0]
0Z
0W
0T
0Q
0N
#2
1:
1c
1`
1]
1Z
1W
1T
1Q
1N
0a
09
0^
08
0[
07
0X
06
0U
05
0R
04
0O
03
0L
02
#3
0:
0c
0`
0]
0Z
0W
0T
0Q
0N
#4
0;
0{
0x
0u
0r
0o
0l
0i
0f
0!
0'!
0"
0K!
0#
0F!
1$
1A!
1%
1<!
1&
17!
0'
02!
1(
1/!
1+!
0)
0(!
1*
1L!
1+
1G!
0,
0B!
0-
0=!
1.
18!
0/
03!
10
1.!
1,!
1:
1c
1`
1]
1Z
1W
1T
1Q
1N
xy
xE
x_
xv
xF
x\
xs
xG
xY
xp
xH
xV
xm
xI
xS
xj
xJ
xP
xg
xK
xM
xd
xD
xb
16!
1#!
1>!
01!
0$!
09!
0-!
0<
0e
1*!
1%!
14!
1;!
1"!
1C!
0:!
0?
0t
05!
0>
0w
0d
0D
0b
10!
1=
1z
1@!
1!!
1H!
0?!
0@
0q
0s
0G
0Y
0v
0F
0\
1y
1E
1_
1E!
1~
1M!
0D!
0A
0n
0p
0H
0V
1J!
1}
1)!
0I!
0B
0k
0m
0I
0S
1&!
1C
1h
0j
0J
0P
1g
1K
1M
#5
0:
0c
0`
0]
0Z
0W
0T
0Q
0N
#6
1:
1c
1`
1]
1Z
1W
1T
1Q
1N
1^
18
1L
12
#7
0:
0c
0`
0]
0Z
0W
0T
0Q
0N
#8
0$
0A!
0%
0<!
0&
07!
0(
0/!
0+!
0*
0L!
0+
0G!
0.
08!
00
0.!
0,!
1:
1c
1`
1]
1Z
1W
1T
1Q
1N
0@!
0!!
0H!
1?!
1@
1q
0;!
0"!
0C!
1:!
1?
1t
06!
0#!
0>!
0*!
0%!
04!
0J!
0}
0)!
1I!
1B
1k
0E!
0~
0M!
1D!
1A
1n
0D!
0A
0n
1p
1H
1V
0?!
0@
0q
1s
1G
1Y
0:!
0?
0t
00!
0=
0z
0&!
0C
0h
1j
1J
1P
0I!
0B
0k
1m
1I
1S
0m
0I
0S
0p
0H
0V
0s
0G
0Y
0y
0E
0_
0g
0K
0M
0j
0J
0P
#9
0:
0c
0`
0]
0Z
0W
0T
0Q
0N
#10
1:
1c
1`
1]
1Z
1W
1T
1Q
1N
0^
08
0L
02
#11
0:
0c
0`
0]
0Z
0W
0T
0Q
0N
#12
1$
1A!
1%
1<!
1&
17!
1(
1/!
1+!
1*
1L!
1+
1G!
1.
18!
10
1.!
1,!
1:
1c
1`
1]
1Z
1W
1T
1Q
1N
1?!
1@
1q
1:!
1?
1t
16!
1#!
1>!
1*!
1%!
14!
1I!
1B
1k
1D!
1A
1n
1p
1H
1V
1s
1G
1Y
1;!
1"!
1C!
0:!
0?
0t
10!
1=
1z
1j
1J
1P
1m
1I
1S
1@!
1!!
1H!
0?!
0@
0q
0s
0G
0Y
1y
1E
1_
1E!
1~
1M!
0D!
0A
0n
0p
0H
0V
1J!
1}
1)!
0I!
0B
0k
0m
0I
0S
1&!
1C
1h
0j
0J
0P
1g
1K
1M
#13
0:
0c
0`
0]
0Z
0W
0T
0Q
0N
#14
1:
1c
1`
1]
1Z
1W
1T
1Q
1N
1^
18
1L
12
#15
0:
0c
0`
0]
0Z
0W
0T
0Q
0N
#16
1;
1{
1x
1u
1r
1o
1l
1i
1f
1:
1c
1`
1]
1Z
1W
1T
1Q
1N
0y
0E
0_
0g
0K
0M
#17
0:
0c
0`
0]
0Z
0W
0T
0Q
0N
#18
1:
1c
1`
1]
1Z
1W
1T
1Q
1N
0^
08
0L
02
#19
0:
0c
0`
0]
0Z
0W
0T
0Q
0N
#20
0;
0{
0x
0u
0r
0o
0l
0i
0f
1:
1c
1`
1]
1Z
1W
1T
1Q
1N
1y
1E
1_
1g
1K
1M
#21
0:
0c
0`
0]
0Z
0W
0T
0Q
0N
#22
1:
1c
1`
1]
1Z
1W
1T
1Q
1N
1^
18
1L
12
#23
0:
0c
0`
0]
0Z
0W
0T
0Q
0N
#24
0$
0A!
0%
0<!
0&
07!
0(
0/!
0+!
0*
0L!
0+
0G!
0.
08!
00
0.!
0,!
1:
1c
1`
1]
1Z
1W
1T
1Q
1N
0@!
0!!
0H!
1?!
1@
1q
0;!
0"!
0C!
1:!
1?
1t
06!
0#!
0>!
0*!
0%!
04!
0J!
0}
0)!
1I!
1B
1k
0E!
0~
0M!
1D!
1A
1n
0D!
0A
0n
1p
1H
1V
0?!
0@
0q
1s
1G
1Y
0:!
0?
0t
00!
0=
0z
0&!
0C
0h
1j
1J
1P
0I!
0B
0k
1m
1I
1S
0m
0I
0S
0p
0H
0V
0s
0G
0Y
0y
0E
0_
0g
0K
0M
0j
0J
0P
#25
0:
0c
0`
0]
0Z
0W
0T
0Q
0N
#26
1:
1c
1`
1]
1Z
1W
1T
1Q
1N
0^
08
0L
02
#27
0:
0c
0`
0]
0Z
0W
0T
0Q
0N
#28
1$
1A!
1%
1<!
1&
17!
1(
1/!
1+!
1*
1L!
1+
1G!
1.
18!
10
1.!
1,!
1:
1c
1`
1]
1Z
1W
1T
1Q
1N
1?!
1@
1q
1:!
1?
1t
16!
1#!
1>!
1*!
1%!
14!
1I!
1B
1k
1D!
1A
1n
1p
1H
1V
1s
1G
1Y
1;!
1"!
1C!
0:!
0?
0t
10!
1=
1z
1j
1J
1P
1m
1I
1S
1@!
1!!
1H!
0?!
0@
0q
0s
0G
0Y
1y
1E
1_
1E!
1~
1M!
0D!
0A
0n
0p
0H
0V
1J!
1}
1)!
0I!
0B
0k
0m
0I
0S
1&!
1C
1h
0j
0J
0P
1g
1K
1M
#29
0:
0c
0`
0]
0Z
0W
0T
0Q
0N
#30
1:
1c
1`
1]
1Z
1W
1T
1Q
1N
1^
18
1L
12
#31
0:
0c
0`
0]
0Z
0W
0T
0Q
0N
#32
1;
1{
1x
1u
1r
1o
1l
1i
1f
1:
1c
1`
1]
1Z
1W
1T
1Q
1N
0y
0E
0_
0g
0K
0M
#33
0:
0c
0`
0]
0Z
0W
0T
0Q
0N
#34
1:
1c
1`
1]
1Z
1W
1T
1Q
1N
0^
08
0L
02
#35
0:
0c
0`
0]
0Z
0W
0T
0Q
0N
#36
0;
0{
0x
0u
0r
0o
0l
0i
0f
1:
1c
1`
1]
1Z
1W
1T
1Q
1N
1y
1E
1_
1g
1K
1M
#37
0:
0c
0`
0]
0Z
0W
0T
0Q
0N
#38
1:
1c
1`
1]
1Z
1W
1T
1Q
1N
1^
18
1L
12
#39
0:
0c
0`
0]
0Z
0W
0T
0Q
0N
#40
0$
0A!
0%
0<!
0&
07!
0(
0/!
0+!
0*
0L!
0+
0G!
0.
08!
00
0.!
0,!
1:
1c
1`
1]
1Z
1W
1T
1Q
1N
0@!
0!!
0H!
1?!
1@
1q
0;!
0"!
0C!
1:!
1?
1t
06!
0#!
0>!
0*!
0%!
04!
0J!
0}
0)!
1I!
1B
1k
0E!
0~
0M!
1D!
1A
1n
0D!
0A
0n
1p
1H
1V
0?!
0@
0q
1s
1G
1Y
0:!
0?
0t
00!
0=
0z
0&!
0C
0h
1j
1J
1P
0I!
0B
0k
1m
1I
1S
0m
0I
0S
0p
0H
0V
0s
0G
0Y
0y
0E
0_
0g
0K
0M
0j
0J
0P
#41
0:
0c
0`
0]
0Z
0W
0T
0Q
0N
#42
1:
1c
1`
1]
1Z
1W
1T
1Q
1N
0^
08
0L
02
#43
0:
0c
0`
0]
0Z
0W
0T
0Q
0N
#44
1$
1A!
1%
1<!
1&
17!
1(
1/!
1+!
1*
1L!
1+
1G!
1.
18!
10
1.!
1,!
1:
1c
1`
1]
1Z
1W
1T
1Q
1N
1?!
1@
1q
1:!
1?
1t
16!
1#!
1>!
1*!
1%!
14!
1I!
1B
1k
1D!
1A
1n
1p
1H
1V
1s
1G
1Y
1;!
1"!
1C!
0:!
0?
0t
10!
1=
1z
1j
1J
1P
1m
1I
1S
1@!
1!!
1H!
0?!
0@
0q
0s
0G
0Y
1y
1E
1_
1E!
1~
1M!
0D!
0A
0n
0p
0H
0V
1J!
1}
1)!
0I!
0B
0k
0m
0I
0S
1&!
1C
1h
0j
0J
0P
1g
1K
1M
#45
0:
0c
0`
0]
0Z
0W
0T
0Q
0N
#46
1:
1c
1`
1]
1Z
1W
1T
1Q
1N
1^
18
1L
12
#47
0:
0c
0`
0]
0Z
0W
0T
0Q
0N
#48
1;
1{
1x
1u
1r
1o
1l
1i
1f
1:
1c
1`
1]
1Z
1W
1T
1Q
1N
0y
0E
0_
0g
0K
0M
#49
0:
0c
0`
0]
0Z
0W
0T
0Q
0N
#50
1:
1c
1`
1]
1Z
1W
1T
1Q
1N
0^
08
0L
02
#51
0:
0c
0`
0]
0Z
0W
0T
0Q
0N
#52
0;
0{
0x
0u
0r
0o
0l
0i
0f
1:
1c
1`
1]
1Z
1W
1T
1Q
1N
1y
1E
1_
1g
1K
1M
#53
0:
0c
0`
0]
0Z
0W
0T
0Q
0N
#54
1:
1c
1`
1]
1Z
1W
1T
1Q
1N
1^
18
1L
12
#55
0:
0c
0`
0]
0Z
0W
0T
0Q
0N
#56
0$
0A!
0%
0<!
0&
07!
0(
0/!
0+!
0*
0L!
0+
0G!
0.
08!
00
0.!
0,!
1:
1c
1`
1]
1Z
1W
1T
1Q
1N
0@!
0!!
0H!
1?!
1@
1q
0;!
0"!
0C!
1:!
1?
1t
06!
0#!
0>!
0*!
0%!
04!
0J!
0}
0)!
1I!
1B
1k
0E!
0~
0M!
1D!
1A
1n
0D!
0A
0n
1p
1H
1V
0?!
0@
0q
1s
1G
1Y
0:!
0?
0t
00!
0=
0z
0&!
0C
0h
1j
1J
1P
0I!
0B
0k
1m
1I
1S
0m
0I
0S
0p
0H
0V
0s
0G
0Y
0y
0E
0_
0g
0K
0M
0j
0J
0P
#57
0:
0c
0`
0]
0Z
0W
0T
0Q
0N
#58
1:
1c
1`
1]
1Z
1W
1T
1Q
1N
0^
08
0L
02
#59
0:
0c
0`
0]
0Z
0W
0T
0Q
0N
#60
1$
1A!
1%
1<!
1&
17!
1(
1/!
1+!
1*
1L!
1+
1G!
1.
18!
10
1.!
1,!
1:
1c
1`
1]
1Z
1W
1T
1Q
1N
1?!
1@
1q
1:!
1?
1t
16!
1#!
1>!
1*!
1%!
14!
1I!
1B
1k
1D!
1A
1n
1p
1H
1V
1s
1G
1Y
1;!
1"!
1C!
0:!
0?
0t
10!
1=
1z
1j
1J
1P
1m
1I
1S
1@!
1!!
1H!
0?!
0@
0q
0s
0G
0Y
1y
1E
1_
1E!
1~
1M!
0D!
0A
0n
0p
0H
0V
1J!
1}
1)!
0I!
0B
0k
0m
0I
0S
1&!
1C
1h
0j
0J
0P
1g
1K
1M
#61
0:
0c
0`
0]
0Z
0W
0T
0Q
0N
#62
1:
1c
1`
1]
1Z
1W
1T
1Q
1N
1^
18
1L
12
#63
0:
0c
0`
0]
0Z
0W
0T
0Q
0N
#64
1;
1{
1x
1u
1r
1o
1l
1i
1f
1:
1c
1`
1]
1Z
1W
1T
1Q
1N
0y
0E
0_
0g
0K
0M
#65
0:
0c
0`
0]
0Z
0W
0T
0Q
0N
#66
1:
1c
1`
1]
1Z
1W
1T
1Q
1N
0^
08
0L
02
#67
0:
0c
0`
0]
0Z
0W
0T
0Q
0N
#68
0;
0{
0x
0u
0r
0o
0l
0i
0f
1:
1c
1`
1]
1Z
1W
1T
1Q
1N
1y
1E
1_
1g
1K
1M
#69
0:
0c
0`
0]
0Z
0W
0T
0Q
0N
#70
1:
1c
1`
1]
1Z
1W
1T
1Q
1N
1^
18
1L
12
#71
0:
0c
0`
0]
0Z
0W
0T
0Q
0N
#72
0$
0A!
0%
0<!
0&
07!
0(
0/!
0+!
0*
0L!
0+
0G!
0.
08!
00
0.!
0,!
1:
1c
1`
1]
1Z
1W
1T
1Q
1N
0@!
0!!
0H!
1?!
1@
1q
0;!
0"!
0C!
1:!
1?
1t
06!
0#!
0>!
0*!
0%!
04!
0J!
0}
0)!
1I!
1B
1k
0E!
0~
0M!
1D!
1A
1n
0D!
0A
0n
1p
1H
1V
0?!
0@
0q
1s
1G
1Y
0:!
0?
0t
00!
0=
0z
0&!
0C
0h
1j
1J
1P
0I!
0B
0k
1m
1I
1S
0m
0I
0S
0p
0H
0V
0s
0G
0Y
0y
0E
0_
0g
0K
0M
0j
0J
0P
#73
0:
0c
0`
0]
0Z
0W
0T
0Q
0N
#74
1:
1c
1`
1]
1Z
1W
1T
1Q
1N
0^
08
0L
02
#75
0:
0c
0`
0]
0Z
0W
0T
0Q
0N
#76
1$
1A!
1%
1<!
1&
17!
1(
1/!
1+!
1*
1L!
1+
1G!
1.
18!
10
1.!
1,!
1:
1c
1`
1]
1Z
1W
1T
1Q
1N
1?!
1@
1q
1:!
1?
1t
16!
1#!
1>!
1*!
1%!
14!
1I!
1B
1k
1D!
1A
1n
1p
1H
1V
1s
1G
1Y
1;!
1"!
1C!
0:!
0?
0t
10!
1=
1z
1j
1J
1P
1m
1I
1S
1@!
1!!
1H!
0?!
0@
0q
0s
0G
0Y
1y
1E
1_
1E!
1~
1M!
0D!
0A
0n
0p
0H
0V
1J!
1}
1)!
0I!
0B
0k
0m
0I
0S
1&!
1C
1h
0j
0J
0P
1g
1K
1M
#77
0:
0c
0`
0]
0Z
0W
0T
0Q
0N
#78
1:
1c
1`
1]
1Z
1W
1T
1Q
1N
1^
18
1L
12
#79
0:
0c
0`
0]
0Z
0W
0T
0Q
0N
#80
1;
1{
1x
1u
1r
1o
1l
1i
1f
1:
1c
1`
1]
1Z
1W
1T
1Q
1N
0y
0E
0_
0g
0K
0M
#81
0:
0c
0`
0]
0Z
0W
0T
0Q
0N
#82
1:
1c
1`
1]
1Z
1W
1T
1Q
1N
0^
08
0L
02
#83
0:
0c
0`
0]
0Z
0W
0T
0Q
0N
#84
0;
0{
0x
0u
0r
0o
0l
0i
0f
1:
1c
1`
1]
1Z
1W
1T
1Q
1N
1y
1E
1_
1g
1K
1M
#85
0:
0c
0`
0]
0Z
0W
0T
0Q
0N
#86
1:
1c
1`
1]
1Z
1W
1T
1Q
1N
1^
18
1L
12
#87
0:
0c
0`
0]
0Z
0W
0T
0Q
0N
#88
0$
0A!
0%
0<!
0&
07!
0(
0/!
0+!
0*
0L!
0+
0G!
0.
08!
00
0.!
0,!
1:
1c
1`
1]
1Z
1W
1T
1Q
1N
0@!
0!!
0H!
1?!
1@
1q
0;!
0"!
0C!
1:!
1?
1t
06!
0#!
0>!
0*!
0%!
04!
0J!
0}
0)!
1I!
1B
1k
0E!
0~
0M!
1D!
1A
1n
0D!
0A
0n
1p
1H
1V
0?!
0@
0q
1s
1G
1Y
0:!
0?
0t
00!
0=
0z
0&!
0C
0h
1j
1J
1P
0I!
0B
0k
1m
1I
1S
0m
0I
0S
0p
0H
0V
0s
0G
0Y
0y
0E
0_
0g
0K
0M
0j
0J
0P
#89
0:
0c
0`
0]
0Z
0W
0T
0Q
0N
#90
1:
1c
1`
1]
1Z
1W
1T
1Q
1N
0^
08
0L
02
#91
0:
0c
0`
0]
0Z
0W
0T
0Q
0N
#92
1$
1A!
1%
1<!
1&
17!
1(
1/!
1+!
1*
1L!
1+
1G!
1.
18!
10
1.!
1,!
1:
1c
1`
1]
1Z
1W
1T
1Q
1N
1?!
1@
1q
1:!
1?
1t
16!
1#!
1>!
1*!
1%!
14!
1I!
1B
1k
1D!
1A
1n
1p
1H
1V
1s
1G
1Y
1;!
1"!
1C!
0:!
0?
0t
10!
1=
1z
1j
1J
1P
1m
1I
1S
1@!
1!!
1H!
0?!
0@
0q
0s
0G
0Y
1y
1E
1_
1E!
1~
1M!
0D!
0A
0n
0p
0H
0V
1J!
1}
1)!
0I!
0B
0k
0m
0I
0S
1&!
1C
1h
0j
0J
0P
1g
1K
1M
#93
0:
0c
0`
0]
0Z
0W
0T
0Q
0N
#94
1:
1c
1`
1]
1Z
1W
1T
1Q
1N
1^
18
1L
12
#95
0:
0c
0`
0]
0Z
0W
0T
0Q
0N
#96
1;
1{
1x
1u
1r
1o
1l
1i
1f
1:
1c
1`
1]
1Z
1W
1T
1Q
1N
0y
0E
0_
0g
0K
0M
#97
0:
0c
0`
0]
0Z
0W
0T
0Q
0N
#98
1:
1c
1`
1]
1Z
1W
1T
1Q
1N
0^
08
0L
02
#99
0:
0c
0`
0]
0Z
0W
0T
0Q
0N
#100
0;
0{
0x
0u
0r
0o
0l
0i
0f
1:
1c
1`
1]
1Z
1W
1T
1Q
1N
1y
1E
1_
1g
1K
1M
#101
0:
0c
0`
0]
0Z
0W
0T
0Q
0N
#102
1:
1c
1`
1]
1Z
1W
1T
1Q
1N
1^
18
1L
12
#103
0:
0c
0`
0]
0Z
0W
0T
0Q
0N
#104
0$
0A!
0%
0<!
0&
07!
0(
0/!
0+!
0*
0L!
0+
0G!
0.
08!
00
0.!
0,!
1:
1c
1`
1]
1Z
1W
1T
1Q
1N
0@!
0!!
0H!
1?!
1@
1q
0;!
0"!
0C!
1:!
1?
1t
06!
0#!
0>!
0*!
0%!
04!
0J!
0}
0)!
1I!
1B
1k
0E!
0~
0M!
1D!
1A
1n
0D!
0A
0n
1p
1H
1V
0?!
0@
0q
1s
1G
1Y
0:!
0?
0t
00!
0=
0z
0&!
0C
0h
1j
1J
1P
0I!
0B
0k
1m
1I
1S
0m
0I
0S
0p
0H
0V
0s
0G
0Y
0y
0E
0_
0g
0K
0M
0j
0J
0P
#105
0:
0c
0`
0]
0Z
0W
0T
0Q
0N
#106
1:
1c
1`
1]
1Z
1W
1T
1Q
1N
0^
08
0L
02
#107
0:
0c
0`
0]
0Z
0W
0T
0Q
0N
#108
1$
1A!
1%
1<!
1&
17!
1(
1/!
1+!
1*
1L!
1+
1G!
1.
18!
10
1.!
1,!
1:
1c
1`
1]
1Z
1W
1T
1Q
1N
1?!
1@
1q
1:!
1?
1t
16!
1#!
1>!
1*!
1%!
14!
1I!
1B
1k
1D!
1A
1n
1p
1H
1V
1s
1G
1Y
1;!
1"!
1C!
0:!
0?
0t
10!
1=
1z
1j
1J
1P
1m
1I
1S
1@!
1!!
1H!
0?!
0@
0q
0s
0G
0Y
1y
1E
1_
1E!
1~
1M!
0D!
0A
0n
0p
0H
0V
1J!
1}
1)!
0I!
0B
0k
0m
0I
0S
1&!
1C
1h
0j
0J
0P
1g
1K
1M
#109
0:
0c
0`
0]
0Z
0W
0T
0Q
0N
#110
1:
1c
1`
1]
1Z
1W
1T
1Q
1N
1^
18
1L
12
#111
0:
0c
0`
0]
0Z
0W
0T
0Q
0N
#112
1;
1{
1x
1u
1r
1o
1l
1i
1f
1:
1c
1`
1]
1Z
1W
1T
1Q
1N
0y
0E
0_
0g
0K
0M
#113
0:
0c
0`
0]
0Z
0W
0T
0Q
0N
#114
1:
1c
1`
1]
1Z
1W
1T
1Q
1N
0^
08
0L
02
#115
0:
0c
0`
0]
0Z
0W
0T
0Q
0N
#116
0;
0{
0x
0u
0r
0o
0l
0i
0f
1:
1c
1`
1]
1Z
1W
1T
1Q
1N
1y
1E
1_
1g
1K
1M
#117
0:
0c
0`
0]
0Z
0W
0T
0Q
0N
#118
1:
1c
1`
1]
1Z
1W
1T
1Q
1N
1^
18
1L
12
#119
0:
0c
0`
0]
0Z
0W
0T
0Q
0N
#120
0$
0A!
0%
0<!
0&
07!
0(
0/!
0+!
0*
0L!
0+
0G!
0.
08!
00
0.!
0,!
1:
1c
1`
1]
1Z
1W
1T
1Q
1N
0@!
0!!
0H!
1?!
1@
1q
0;!
0"!
0C!
1:!
1?
1t
06!
0#!
0>!
0*!
0%!
04!
0J!
0}
0)!
1I!
1B
1k
0E!
0~
0M!
1D!
1A
1n
0D!
0A
0n
1p
1H
1V
0?!
0@
0q
1s
1G
1Y
0:!
0?
0t
00!
0=
0z
0&!
0C
0h
1j
1J
1P
0I!
0B
0k
1m
1I
1S
0m
0I
0S
0p
0H
0V
0s
0G
0Y
0y
0E
0_
0g
0K
0M
0j
0J
0P
#121
0:
0c
0`
0]
0Z
0W
0T
0Q
0N
#122
1:
1c
1`
1]
1Z
1W
1T
1Q
1N
0^
08
0L
02
#123
0:
0c
0`
0]
0Z
0W
0T
0Q
0N
#124
1$
1A!
1%
1<!
1&
17!
1(
1/!
1+!
1*
1L!
1+
1G!
1.
18!
10
1.!
1,!
1:
1c
1`
1]
1Z
1W
1T
1Q
1N
1?!
1@
1q
1:!
1?
1t
16!
1#!
1>!
1*!
1%!
14!
1I!
1B
1k
1D!
1A
1n
1p
1H
1V
1s
1G
1Y
1;!
1"!
1C!
0:!
0?
0t
10!
1=
1z
1j
1J
1P
1m
1I
1S
1@!
1!!
1H!
0?!
0@
0q
0s
0G
0Y
1y
1E
1_
1E!
1~
1M!
0D!
0A
0n
0p
0H
0V
1J!
1}
1)!
0I!
0B
0k
0m
0I
0S
1&!
1C
1h
0j
0J
0P
1g
1K
1M
#125
0:
0c
0`
0]
0Z
0W
0T
0Q
0N
#126
1:
1c
1`
1]
1Z
1W
1T
1Q
1N
1^
18
1L
12
#127
0:
0c
0`
0]
0Z
0W
0T
0Q
0N
